<?xml version="1.0" encoding="UTF-8" standalone="no"?>
<!-- Created with Inkscape (http://www.inkscape.org/) -->

<svg
   xmlns:dc="http://purl.org/dc/elements/1.1/"
   xmlns:cc="http://creativecommons.org/ns#"
   xmlns:rdf="http://www.w3.org/1999/02/22-rdf-syntax-ns#"
   xmlns:svg="http://www.w3.org/2000/svg"
   xmlns="http://www.w3.org/2000/svg"
   xmlns:sodipodi="http://sodipodi.sourceforge.net/DTD/sodipodi-0.dtd"
   xmlns:inkscape="http://www.inkscape.org/namespaces/inkscape"
   width="500"
   height="500"
   viewBox="0 0 132.29166 132.29167"
   version="1.1"
   id="svg8"
   inkscape:version="0.92.4 (5da689c313, 2019-01-14)"
   sodipodi:docname="cold.svg">
  <defs
     id="defs2">
    <style
       id="style817">.cls-1{fill:#515570;}.cls-12,.cls-2,.cls-7{fill:#393c54;}.cls-2{opacity:0.5;}.cls-3{fill:#fbc0aa;}.cls-4{fill:#f8dc25;}.cls-10,.cls-5{fill:none;stroke-linecap:round;stroke-linejoin:round;}.cls-5{stroke:#fbc0aa;stroke-width:20px;}.cls-6{fill:#ffd8c9;}.cls-8{fill:#8f5653;}.cls-9{fill:#f2bc0f;}.cls-10{stroke:#515570;stroke-width:2px;opacity:0.4;}.cls-11{fill:#356cb6;}.cls-12{opacity:0.2;}.cls-13{fill:#fff;}.cls-14{fill:#f85565;}</style>
    <style
       id="style817-1">.cls-1{fill:#515570;}.cls-12,.cls-2,.cls-7{fill:#393c54;}.cls-2{opacity:0.5;}.cls-3{fill:#fbc0aa;}.cls-4{fill:#f8dc25;}.cls-10,.cls-5{fill:none;stroke-linecap:round;stroke-linejoin:round;}.cls-5{stroke:#fbc0aa;stroke-width:20px;}.cls-6{fill:#ffd8c9;}.cls-8{fill:#8f5653;}.cls-9{fill:#f2bc0f;}.cls-10{stroke:#515570;stroke-width:2px;opacity:0.4;}.cls-11{fill:#356cb6;}.cls-12{opacity:0.2;}.cls-13{fill:#fff;}.cls-14{fill:#f85565;}</style>
  </defs>
  <sodipodi:namedview
     id="base"
     pagecolor="#ffffff"
     bordercolor="#666666"
     borderopacity="1.0"
     inkscape:pageopacity="0.0"
     inkscape:pageshadow="2"
     inkscape:zoom="0.49497475"
     inkscape:cx="-322.02003"
     inkscape:cy="271.40796"
     inkscape:document-units="mm"
     inkscape:current-layer="layer1"
     showgrid="false"
     units="px"
     inkscape:pagecheckerboard="true"
     inkscape:window-width="1920"
     inkscape:window-height="1017"
     inkscape:window-x="-8"
     inkscape:window-y="-8"
     inkscape:window-maximized="1" />
  <metadata
     id="metadata5">
    <rdf:RDF>
      <cc:Work
         rdf:about="">
        <dc:format>image/svg+xml</dc:format>
        <dc:type
           rdf:resource="http://purl.org/dc/dcmitype/StillImage" />
        <dc:title></dc:title>
      </cc:Work>
    </rdf:RDF>
  </metadata>
  <g
     inkscape:label="Layer 1"
     inkscape:groupmode="layer"
     id="layer1"
     transform="translate(0,-164.70832)">
    <g
       id="g968">
      <path
         inkscape:connector-curvature="0"
         id="path920"
         d="m 45.13177,209.84008 42.028126,42.02814"
         style="fill:none;stroke:#000000;stroke-width:6;stroke-linecap:round;stroke-linejoin:round;stroke-miterlimit:4;stroke-dasharray:none;stroke-opacity:1" />
      <path
         style="fill:none;stroke:#000000;stroke-width:6;stroke-linecap:round;stroke-linejoin:round;stroke-miterlimit:4;stroke-dasharray:none;stroke-opacity:1"
         d="M 87.159896,209.84008 45.13177,251.86822"
         id="path922"
         inkscape:connector-curvature="0" />
      <g
         style="stroke:#000000;stroke-opacity:1"
         transform="rotate(90,-15.872506,306.58828)"
         id="g918">
        <path
           inkscape:connector-curvature="0"
           id="path904"
           d="m -122.81035,224.56994 h 62.407436"
           style="fill:none;stroke:#000000;stroke-width:6;stroke-linecap:round;stroke-linejoin:round;stroke-miterlimit:4;stroke-dasharray:none;stroke-opacity:1" />
        <g
           style="stroke:#000000;stroke-opacity:1"
           id="g910">
          <path
             style="fill:none;stroke:#000000;stroke-width:6;stroke-linecap:round;stroke-linejoin:round;stroke-miterlimit:4;stroke-dasharray:none;stroke-opacity:1"
             d="m -60.402914,224.56994 9.788745,-9.78875"
             id="path906"
             inkscape:connector-curvature="0" />
          <path
             inkscape:connector-curvature="0"
             id="path908"
             d="m -60.402914,224.56994 9.788745,9.78875"
             style="fill:none;stroke:#000000;stroke-width:6;stroke-linecap:round;stroke-linejoin:round;stroke-miterlimit:4;stroke-dasharray:none;stroke-opacity:1" />
        </g>
        <g
           style="stroke:#000000;stroke-opacity:1"
           transform="matrix(-1,0,0,1,-183.21326,0)"
           id="g916">
          <path
             inkscape:connector-curvature="0"
             id="path912"
             d="m -60.402914,224.56994 9.788745,-9.78875"
             style="fill:none;stroke:#000000;stroke-width:6;stroke-linecap:round;stroke-linejoin:round;stroke-miterlimit:4;stroke-dasharray:none;stroke-opacity:1" />
          <path
             style="fill:none;stroke:#000000;stroke-width:6;stroke-linecap:round;stroke-linejoin:round;stroke-miterlimit:4;stroke-dasharray:none;stroke-opacity:1"
             d="m -60.402914,224.56994 9.788745,9.78875"
             id="path914"
             inkscape:connector-curvature="0" />
        </g>
      </g>
      <g
         style="stroke:#000000;stroke-opacity:1"
         transform="translate(157.75246,6.2842153)"
         id="g902">
        <path
           style="fill:none;stroke:#000000;stroke-width:6;stroke-linecap:round;stroke-linejoin:round;stroke-miterlimit:4;stroke-dasharray:none;stroke-opacity:1"
           d="m -122.81035,224.56994 h 62.407436"
           id="path877"
           inkscape:connector-curvature="0" />
        <g
           style="stroke:#000000;stroke-opacity:1"
           id="g887">
          <path
             inkscape:connector-curvature="0"
             id="path881"
             d="m -60.402914,224.56994 9.788745,-9.78875"
             style="fill:none;stroke:#000000;stroke-width:6;stroke-linecap:round;stroke-linejoin:round;stroke-miterlimit:4;stroke-dasharray:none;stroke-opacity:1" />
          <path
             style="fill:none;stroke:#000000;stroke-width:6;stroke-linecap:round;stroke-linejoin:round;stroke-miterlimit:4;stroke-dasharray:none;stroke-opacity:1"
             d="m -60.402914,224.56994 9.788745,9.78875"
             id="path883"
             inkscape:connector-curvature="0" />
        </g>
        <g
           style="stroke:#000000;stroke-opacity:1"
           id="g893"
           transform="matrix(-1,0,0,1,-183.21326,0)">
          <path
             style="fill:none;stroke:#000000;stroke-width:6;stroke-linecap:round;stroke-linejoin:round;stroke-miterlimit:4;stroke-dasharray:none;stroke-opacity:1"
             d="m -60.402914,224.56994 9.788745,-9.78875"
             id="path889"
             inkscape:connector-curvature="0" />
          <path
             inkscape:connector-curvature="0"
             id="path891"
             d="m -60.402914,224.56994 9.788745,9.78875"
             style="fill:none;stroke:#000000;stroke-width:6;stroke-linecap:round;stroke-linejoin:round;stroke-miterlimit:4;stroke-dasharray:none;stroke-opacity:1" />
        </g>
      </g>
    </g>
  </g>
</svg>
