<?xml version="1.0" encoding="UTF-8" standalone="no"?>
<!-- Created with Inkscape (http://www.inkscape.org/) -->

<svg
   xmlns:dc="http://purl.org/dc/elements/1.1/"
   xmlns:cc="http://creativecommons.org/ns#"
   xmlns:rdf="http://www.w3.org/1999/02/22-rdf-syntax-ns#"
   xmlns:svg="http://www.w3.org/2000/svg"
   xmlns="http://www.w3.org/2000/svg"
   xmlns:sodipodi="http://sodipodi.sourceforge.net/DTD/sodipodi-0.dtd"
   xmlns:inkscape="http://www.inkscape.org/namespaces/inkscape"
   width="100"
   height="100"
   viewBox="0 0 26.458333 26.458334"
   version="1.1"
   id="svg8"
   inkscape:version="0.92.4 (5da689c313, 2019-01-14)"
   sodipodi:docname="parsegumi.svg">
  <defs
     id="defs2" />
  <sodipodi:namedview
     id="base"
     pagecolor="#ffffff"
     bordercolor="#666666"
     borderopacity="1.0"
     inkscape:pageopacity="0.0"
     inkscape:pageshadow="2"
     inkscape:zoom="1.4142136"
     inkscape:cx="45.668166"
     inkscape:cy="130.03817"
     inkscape:document-units="px"
     inkscape:current-layer="layer1"
     showgrid="false"
     units="px"
     inkscape:window-width="1920"
     inkscape:window-height="1017"
     inkscape:window-x="-8"
     inkscape:window-y="-8"
     inkscape:window-maximized="1" />
  <metadata
     id="metadata5">
    <rdf:RDF>
      <cc:Work
         rdf:about="">
        <dc:format>image/svg+xml</dc:format>
        <dc:type
           rdf:resource="http://purl.org/dc/dcmitype/StillImage" />
        <dc:title></dc:title>
      </cc:Work>
    </rdf:RDF>
  </metadata>
  <g
     inkscape:label="Layer 1"
     inkscape:groupmode="layer"
     id="layer1"
     transform="translate(0,-270.54165)">
    <rect
       style="opacity:1;fill:#000000;fill-opacity:1;stroke:none;stroke-width:1.50000024;stroke-linecap:round;stroke-linejoin:round;stroke-miterlimit:4;stroke-dasharray:none;stroke-dashoffset:18.89763832;stroke-opacity:1"
       id="rect823"
       width="23.449446"
       height="0.8018086"
       x="1.5044439"
       y="290.25656"
       ry="0" />
    <path
       style="opacity:1;fill:#cccccc;fill-opacity:0.50588235;stroke:none;stroke-width:5.6692915;stroke-linecap:round;stroke-linejoin:round;stroke-miterlimit:4;stroke-dasharray:none;stroke-dashoffset:18.89763832;stroke-opacity:1"
       d="M 17.292969 57.75 L 17.292969 66.558594 L 17.292969 66.568359 L 17.292969 74.513672 L 82.707031 74.513672 L 82.707031 66.568359 L 82.707031 66.558594 L 82.707031 57.75 L 17.292969 57.75 z "
       transform="matrix(0.26458333,0,0,0.26458333,0,270.54165)"
       id="rect825" />
    <path
       sodipodi:nodetypes="ccccc"
       inkscape:connector-curvature="0"
       id="path888"
       d="m 3.7560513,291.06111 -2.2521633,2.28432 0.3771006,-0.004 2.2610991,-2.27661 z"
       style="fill:#e0e0e0;fill-opacity:1;stroke:none;stroke-width:0.26458332px;stroke-linecap:butt;stroke-linejoin:miter;stroke-opacity:1" />
    <path
       style="fill:#e0e0e0;fill-opacity:1;stroke:none;stroke-width:0.26458332px;stroke-linecap:butt;stroke-linejoin:miter;stroke-opacity:1"
       d="m 6.3599904,291.06111 -2.2521633,2.28432 0.3771006,-0.004 2.2610991,-2.27661 z"
       id="path890"
       inkscape:connector-curvature="0"
       sodipodi:nodetypes="ccccc" />
    <path
       style="fill:#e0e0e0;fill-opacity:1;stroke:none;stroke-width:0.26458332px;stroke-linecap:butt;stroke-linejoin:miter;stroke-opacity:1"
       d="m 8.9484992,291.06111 -2.2521633,2.28432 0.3771006,-0.004 2.2610991,-2.27661 z"
       id="path892"
       inkscape:connector-curvature="0"
       sodipodi:nodetypes="ccccc" />
    <path
       sodipodi:nodetypes="ccccc"
       inkscape:connector-curvature="0"
       id="path894"
       d="m 11.552438,291.06111 -2.252163,2.28432 0.3771006,-0.004 2.2610994,-2.27661 z"
       style="fill:#e0e0e0;fill-opacity:1;stroke:none;stroke-width:0.26458332px;stroke-linecap:butt;stroke-linejoin:miter;stroke-opacity:1" />
    <path
       sodipodi:nodetypes="ccccc"
       inkscape:connector-curvature="0"
       id="path896"
       d="m 14.157484,291.06111 -2.252164,2.28432 0.377101,-0.004 2.261099,-2.27661 z"
       style="fill:#e0e0e0;fill-opacity:1;stroke:none;stroke-width:0.26458332px;stroke-linecap:butt;stroke-linejoin:miter;stroke-opacity:1" />
    <path
       style="fill:#e0e0e0;fill-opacity:1;stroke:none;stroke-width:0.26458332px;stroke-linecap:butt;stroke-linejoin:miter;stroke-opacity:1"
       d="m 16.761422,291.06111 -2.252163,2.28432 0.377101,-0.004 2.261099,-2.27661 z"
       id="path898"
       inkscape:connector-curvature="0"
       sodipodi:nodetypes="ccccc" />
    <path
       style="fill:#e0e0e0;fill-opacity:1;stroke:none;stroke-width:0.26458332px;stroke-linecap:butt;stroke-linejoin:miter;stroke-opacity:1"
       d="m 19.399541,291.06111 -2.252164,2.28432 0.377101,-0.004 2.261099,-2.27661 z"
       id="path900"
       inkscape:connector-curvature="0"
       sodipodi:nodetypes="ccccc" />
    <path
       sodipodi:nodetypes="ccccc"
       inkscape:connector-curvature="0"
       id="path902"
       d="m 22.003479,291.06111 -2.252163,2.28432 0.377101,-0.004 2.261099,-2.27661 z"
       style="fill:#e0e0e0;fill-opacity:1;stroke:none;stroke-width:0.26458332px;stroke-linecap:butt;stroke-linejoin:miter;stroke-opacity:1" />
    <path
       style="fill:#e0e0e0;fill-opacity:1;stroke:none;stroke-width:0.26458332px;stroke-linecap:butt;stroke-linejoin:miter;stroke-opacity:1"
       d="m 24.564255,291.06111 -2.252163,2.28432 0.377101,-0.004 2.261099,-2.27661 z"
       id="path904"
       inkscape:connector-curvature="0"
       sodipodi:nodetypes="ccccc" />
    <path
       style="fill:#e0e0e0;fill-opacity:1;stroke:none;stroke-width:0.26458332px;stroke-linecap:butt;stroke-linejoin:miter;stroke-opacity:1"
       d="m 5.0128221,291.06111 -2.2521633,2.28432 0.3771006,-0.004 2.2610991,-2.27661 z"
       id="path908"
       inkscape:connector-curvature="0"
       sodipodi:nodetypes="ccccc" />
    <path
       sodipodi:nodetypes="ccccc"
       inkscape:connector-curvature="0"
       id="path910"
       d="m 7.6167612,291.06111 -2.2521633,2.28432 0.3771006,-0.004 2.2610991,-2.27661 z"
       style="fill:#e0e0e0;fill-opacity:1;stroke:none;stroke-width:0.26458332px;stroke-linecap:butt;stroke-linejoin:miter;stroke-opacity:1" />
    <path
       sodipodi:nodetypes="ccccc"
       inkscape:connector-curvature="0"
       id="path912"
       d="m 10.20527,291.06111 -2.2521633,2.28432 0.3771006,-0.004 2.2610987,-2.27661 z"
       style="fill:#e0e0e0;fill-opacity:1;stroke:none;stroke-width:0.26458332px;stroke-linecap:butt;stroke-linejoin:miter;stroke-opacity:1" />
    <path
       style="fill:#e0e0e0;fill-opacity:1;stroke:none;stroke-width:0.26458332px;stroke-linecap:butt;stroke-linejoin:miter;stroke-opacity:1"
       d="m 12.809209,291.06111 -2.252163,2.28432 0.3771,-0.004 2.2611,-2.27661 z"
       id="path914"
       inkscape:connector-curvature="0"
       sodipodi:nodetypes="ccccc" />
    <path
       style="fill:#e0e0e0;fill-opacity:1;stroke:none;stroke-width:0.26458332px;stroke-linecap:butt;stroke-linejoin:miter;stroke-opacity:1"
       d="m 15.414255,291.06111 -2.252164,2.28432 0.377101,-0.004 2.261099,-2.27661 z"
       id="path916"
       inkscape:connector-curvature="0"
       sodipodi:nodetypes="ccccc" />
    <path
       sodipodi:nodetypes="ccccc"
       inkscape:connector-curvature="0"
       id="path918"
       d="m 18.018193,291.06111 -2.252163,2.28432 0.377101,-0.004 2.261099,-2.27661 z"
       style="fill:#e0e0e0;fill-opacity:1;stroke:none;stroke-width:0.26458332px;stroke-linecap:butt;stroke-linejoin:miter;stroke-opacity:1" />
    <path
       sodipodi:nodetypes="ccccc"
       inkscape:connector-curvature="0"
       id="path920"
       d="m 20.656312,291.06111 -2.252164,2.28432 0.377101,-0.004 2.261099,-2.27661 z"
       style="fill:#e0e0e0;fill-opacity:1;stroke:none;stroke-width:0.26458332px;stroke-linecap:butt;stroke-linejoin:miter;stroke-opacity:1" />
    <path
       style="fill:#e0e0e0;fill-opacity:1;stroke:none;stroke-width:0.26458332px;stroke-linecap:butt;stroke-linejoin:miter;stroke-opacity:1"
       d="m 23.26025,291.06111 -2.252163,2.28432 0.377101,-0.004 2.261099,-2.27661 z"
       id="path922"
       inkscape:connector-curvature="0"
       sodipodi:nodetypes="ccccc" />
    <path
       style="opacity:1;fill:#cccccc;fill-opacity:0.50588235;stroke:none;stroke-width:5.6692915;stroke-linecap:round;stroke-linejoin:round;stroke-miterlimit:4;stroke-dasharray:none;stroke-dashoffset:18.89763832;stroke-opacity:1"
       d="M 60.757812 15.388672 L 60.757812 21.699219 L 50 15.923828 L 9.6875 37.568359 L 17.019531 37.568359 L 17.292969 37.568359 L 17.292969 46.533203 L 82.707031 46.533203 L 82.707031 37.568359 L 90.3125 37.568359 L 71.740234 27.595703 L 71.740234 15.388672 L 60.757812 15.388672 z "
       transform="matrix(0.26458333,0,0,0.26458333,0,270.54165)"
       id="path832" />
    <rect
       ry="0"
       y="283.66992"
       x="4.5030847"
       height="1.3350348"
       width="17.339518"
       id="rect836"
       style="opacity:1;fill:#ffd42a;fill-opacity:1;stroke:none;stroke-width:1.5;stroke-linecap:round;stroke-linejoin:round;stroke-miterlimit:4;stroke-dasharray:none;stroke-dashoffset:18.89763832;stroke-opacity:1" />
  </g>
</svg>
