<?xml version="1.0" encoding="UTF-8" standalone="no"?>
<!-- Created with Inkscape (http://www.inkscape.org/) -->

<svg
   xmlns:dc="http://purl.org/dc/elements/1.1/"
   xmlns:cc="http://creativecommons.org/ns#"
   xmlns:rdf="http://www.w3.org/1999/02/22-rdf-syntax-ns#"
   xmlns:svg="http://www.w3.org/2000/svg"
   xmlns="http://www.w3.org/2000/svg"
   xmlns:sodipodi="http://sodipodi.sourceforge.net/DTD/sodipodi-0.dtd"
   xmlns:inkscape="http://www.inkscape.org/namespaces/inkscape"
   width="100"
   height="100"
   viewBox="0 0 26.458333 26.458334"
   version="1.1"
   id="svg8"
   inkscape:version="0.92.4 (5da689c313, 2019-01-14)"
   sodipodi:docname="quality.svg">
  <defs
     id="defs2" />
  <sodipodi:namedview
     id="base"
     pagecolor="#ffffff"
     bordercolor="#666666"
     borderopacity="1.0"
     inkscape:pageopacity="0.0"
     inkscape:pageshadow="2"
     inkscape:zoom="5.6"
     inkscape:cx="28.522718"
     inkscape:cy="58.973538"
     inkscape:document-units="px"
     inkscape:current-layer="layer1"
     showgrid="false"
     units="px"
     inkscape:window-width="1920"
     inkscape:window-height="1017"
     inkscape:window-x="-8"
     inkscape:window-y="-8"
     inkscape:window-maximized="1" />
  <metadata
     id="metadata5">
    <rdf:RDF>
      <cc:Work
         rdf:about="">
        <dc:format>image/svg+xml</dc:format>
        <dc:type
           rdf:resource="http://purl.org/dc/dcmitype/StillImage" />
        <dc:title />
      </cc:Work>
    </rdf:RDF>
  </metadata>
  <g
     inkscape:label="Layer 1"
     inkscape:groupmode="layer"
     id="layer1"
     transform="translate(0,-270.54165)">
    <rect
       style="opacity:1;fill:none;fill-opacity:1;stroke:#1eb268;stroke-width:1.49999976;stroke-linecap:round;stroke-linejoin:round;stroke-miterlimit:4;stroke-dasharray:none;stroke-dashoffset:18.89763832;stroke-opacity:1"
       id="rect1502"
       width="13.636003"
       height="19.149876"
       x="5.6391315"
       y="272.99249"
       rx="0"
       ry="0.85191393" />
    <path
       style="fill:none;stroke:#1eb268;stroke-width:1.24999988;stroke-linecap:round;stroke-linejoin:round;stroke-miterlimit:4;stroke-dasharray:none;stroke-opacity:1"
       d="M 8.4301293,275.81925 H 10.164021"
       id="path1520"
       inkscape:connector-curvature="0" />
    <path
       inkscape:connector-curvature="0"
       id="path818"
       d="M 8.3314401,278.86901 H 16.019949"
       style="fill:none;stroke:#1eb268;stroke-width:1.24999988;stroke-linecap:round;stroke-linejoin:round;stroke-miterlimit:4;stroke-dasharray:none;stroke-opacity:1" />
    <path
       style="fill:none;stroke:#1eb268;stroke-width:1.24999988;stroke-linecap:round;stroke-linejoin:round;stroke-miterlimit:4;stroke-dasharray:none;stroke-opacity:1"
       d="M 8.3314401,281.91876 H 16.019949"
       id="path820"
       inkscape:connector-curvature="0" />
    <path
       inkscape:connector-curvature="0"
       id="path822"
       d="M 8.3314401,284.96851 H 16.019949"
       style="fill:none;stroke:#1eb268;stroke-width:1.24999988;stroke-linecap:round;stroke-linejoin:round;stroke-miterlimit:4;stroke-dasharray:none;stroke-opacity:1" />
    <rect
       style="opacity:1;fill:#ffffff;fill-opacity:1;stroke:none;stroke-width:0.52916664;stroke-linecap:round;stroke-linejoin:round;stroke-miterlimit:4;stroke-dasharray:none;stroke-dashoffset:18.89763832;stroke-opacity:1"
       id="rect830"
       width="3.8270087"
       height="1.9135042"
       x="7.559525"
       y="291.16498"
       ry="0" />
    <path
       style="opacity:1;fill:#1eb268;fill-opacity:0.45408162;stroke:#ffffff;stroke-width:0.5291667;stroke-linecap:butt;stroke-linejoin:miter;stroke-miterlimit:4;stroke-dasharray:none;stroke-opacity:1"
       d="m 8.8220167,288.6327 -0.7677639,6.12895 1.5355279,-1.27444 1.5355283,1.27444 -0.767764,-6.13377 z"
       id="path826"
       inkscape:connector-curvature="0"
       sodipodi:nodetypes="cccccc" />
    <path
       sodipodi:type="star"
       style="opacity:1;fill:#1eb268;fill-opacity:1;stroke:none;stroke-width:6.56005526;stroke-linecap:round;stroke-linejoin:round;stroke-miterlimit:4;stroke-dasharray:none;stroke-dashoffset:18.89763832;stroke-opacity:1"
       id="path1492"
       sodipodi:sides="5"
       sodipodi:cx="8.9535294"
       sodipodi:cy="283.50287"
       sodipodi:r1="8.1684074"
       sodipodi:r2="4.0842037"
       sodipodi:arg1="0.52359878"
       sodipodi:arg2="1.1519173"
       inkscape:flatsided="false"
       inkscape:rounded="0"
       inkscape:randomized="0"
       d="m 16.027578,287.58707 -5.412853,-0.3531 -3.3595031,4.25881 -1.3368474,-5.25705 -5.0885052,-1.87903 4.5866359,-2.89593 0.2146336,-5.42011 4.1715442,3.46725 5.221156,-1.47077 -2.00848,5.03881 z"
       inkscape:transform-center-y="-0.61118962"
       transform="matrix(0.2089369,0.09259317,-0.09244641,0.20926858,33.913817,228.67999)"
       inkscape:transform-center-x="-0.32149615" />
    <path
       inkscape:transform-center-x="-1.992558"
       transform="matrix(0.73005576,0.51180493,-0.51149296,0.73143596,155.18876,69.442584)"
       inkscape:transform-center-y="-1.6933719"
       d="m 16.027578,287.58707 -5.412853,-0.3531 -3.3595031,4.25881 -1.3368474,-5.25705 -5.0885052,-1.87903 4.5866359,-2.89593 0.2146336,-5.42011 4.1715442,3.46725 5.221156,-1.47077 -2.00848,5.03881 z"
       inkscape:randomized="0"
       inkscape:rounded="0"
       inkscape:flatsided="false"
       sodipodi:arg2="1.1519173"
       sodipodi:arg1="0.52359878"
       sodipodi:r2="4.0842037"
       sodipodi:r1="8.1684074"
       sodipodi:cy="283.50287"
       sodipodi:cx="8.9535294"
       sodipodi:sides="5"
       id="path832"
       style="opacity:1;fill:#1eb268;fill-opacity:0.15306123;stroke:none;stroke-width:1.68149841;stroke-linecap:round;stroke-linejoin:round;stroke-miterlimit:4;stroke-dasharray:none;stroke-dashoffset:18.89763832;stroke-opacity:1"
       sodipodi:type="star" />
  </g>
</svg>
