<?xml version="1.0" encoding="UTF-8" standalone="no"?>
<!-- Created with Inkscape (http://www.inkscape.org/) -->

<svg
   xmlns:dc="http://purl.org/dc/elements/1.1/"
   xmlns:cc="http://creativecommons.org/ns#"
   xmlns:rdf="http://www.w3.org/1999/02/22-rdf-syntax-ns#"
   xmlns:svg="http://www.w3.org/2000/svg"
   xmlns="http://www.w3.org/2000/svg"
   xmlns:sodipodi="http://sodipodi.sourceforge.net/DTD/sodipodi-0.dtd"
   xmlns:inkscape="http://www.inkscape.org/namespaces/inkscape"
   width="500"
   height="500"
   viewBox="0 0 132.29166 132.29167"
   version="1.1"
   id="svg8"
   inkscape:version="0.92.4 (5da689c313, 2019-01-14)"
   sodipodi:docname="sound.svg">
  <defs
     id="defs2">
    <style
       id="style817">.cls-1{fill:#515570;}.cls-12,.cls-2,.cls-7{fill:#393c54;}.cls-2{opacity:0.5;}.cls-3{fill:#fbc0aa;}.cls-4{fill:#f8dc25;}.cls-10,.cls-5{fill:none;stroke-linecap:round;stroke-linejoin:round;}.cls-5{stroke:#fbc0aa;stroke-width:20px;}.cls-6{fill:#ffd8c9;}.cls-8{fill:#8f5653;}.cls-9{fill:#f2bc0f;}.cls-10{stroke:#515570;stroke-width:2px;opacity:0.4;}.cls-11{fill:#356cb6;}.cls-12{opacity:0.2;}.cls-13{fill:#fff;}.cls-14{fill:#f85565;}</style>
  </defs>
  <sodipodi:namedview
     id="base"
     pagecolor="#ffffff"
     bordercolor="#666666"
     borderopacity="1.0"
     inkscape:pageopacity="0.0"
     inkscape:pageshadow="2"
     inkscape:zoom="0.49497475"
     inkscape:cx="31.779151"
     inkscape:cy="210.31463"
     inkscape:document-units="mm"
     inkscape:current-layer="layer1"
     showgrid="false"
     units="px"
     inkscape:pagecheckerboard="true"
     inkscape:window-width="1920"
     inkscape:window-height="1017"
     inkscape:window-x="-8"
     inkscape:window-y="-8"
     inkscape:window-maximized="1" />
  <metadata
     id="metadata5">
    <rdf:RDF>
      <cc:Work
         rdf:about="">
        <dc:format>image/svg+xml</dc:format>
        <dc:type
           rdf:resource="http://purl.org/dc/dcmitype/StillImage" />
        <dc:title></dc:title>
      </cc:Work>
    </rdf:RDF>
  </metadata>
  <g
     inkscape:label="Layer 1"
     inkscape:groupmode="layer"
     id="layer1"
     transform="translate(0,-164.70832)">
    <g
       id="g864"
       transform="translate(-2.0372358,4.263349)">
      <g
         transform="translate(0,-0.40651564)"
         id="g850">
        <path
           style="fill:none;stroke:#000000;stroke-width:7.8010006;stroke-linecap:round;stroke-linejoin:round;stroke-miterlimit:4;stroke-dasharray:none;stroke-opacity:1"
           d="m 99.993082,218.51896 16.959358,16.95672"
           id="path833"
           inkscape:connector-curvature="0" />
        <path
           inkscape:connector-curvature="0"
           id="path835"
           d="M 116.95244,218.51896 99.993082,235.47568"
           style="fill:none;stroke:#000000;stroke-width:7.8010006;stroke-linecap:round;stroke-linejoin:round;stroke-miterlimit:4;stroke-dasharray:none;stroke-opacity:1" />
      </g>
      <g
         id="g855">
        <rect
           style="opacity:1;vector-effect:none;fill:#ffcd14;fill-opacity:1;stroke:none;stroke-width:7.41272163;stroke-linecap:round;stroke-linejoin:round;stroke-miterlimit:4;stroke-dasharray:none;stroke-dashoffset:0;stroke-opacity:1;paint-order:normal"
           id="rect846"
           width="26.456921"
           height="43.373077"
           x="17.782051"
           y="205.39023"
           ry="0" />
        <rect
           style="opacity:1;vector-effect:none;fill:none;fill-opacity:0.77777782;stroke:#000000;stroke-width:6.99999952;stroke-linecap:round;stroke-linejoin:round;stroke-miterlimit:4;stroke-dasharray:none;stroke-dashoffset:0;stroke-opacity:1;paint-order:normal"
           id="rect831"
           width="25.265177"
           height="43.373074"
           x="18.973799"
           y="205.39023"
           ry="0" />
        <path
           style="opacity:1;vector-effect:none;fill:none;fill-opacity:0.77777782;stroke:#000000;stroke-width:6.99999952;stroke-linecap:round;stroke-linejoin:round;stroke-miterlimit:4;stroke-dasharray:none;stroke-dashoffset:0;stroke-opacity:1;paint-order:normal"
           d="m 45.907436,205.39022 33.108042,-27.08831 c 0.715349,-0.58528 1.668459,0.74402 1.668459,1.66819 v 93.24453 c 0,0.92419 -0.942818,2.24068 -1.668459,1.6682 L 45.907436,248.7633 c -0.725641,-0.57248 -1.668459,-0.74402 -1.668459,-1.6682 v -40.03668 c 0,-0.92418 0.953109,-1.08292 1.668459,-1.6682 z"
           id="rect841"
           inkscape:connector-curvature="0"
           sodipodi:nodetypes="sssssssss" />
      </g>
    </g>
  </g>
</svg>
