<?xml version="1.0" encoding="UTF-8" standalone="no"?>
<!-- Created with Inkscape (http://www.inkscape.org/) -->

<svg
   xmlns:dc="http://purl.org/dc/elements/1.1/"
   xmlns:cc="http://creativecommons.org/ns#"
   xmlns:rdf="http://www.w3.org/1999/02/22-rdf-syntax-ns#"
   xmlns:svg="http://www.w3.org/2000/svg"
   xmlns="http://www.w3.org/2000/svg"
   xmlns:sodipodi="http://sodipodi.sourceforge.net/DTD/sodipodi-0.dtd"
   xmlns:inkscape="http://www.inkscape.org/namespaces/inkscape"
   width="100"
   height="100"
   viewBox="0 0 26.458333 26.458334"
   version="1.1"
   id="svg8"
   inkscape:version="0.92.4 (5da689c313, 2019-01-14)"
   sodipodi:docname="speed_yellow.svg">
  <defs
     id="defs2" />
  <sodipodi:namedview
     id="base"
     pagecolor="#ffffff"
     bordercolor="#666666"
     borderopacity="1.0"
     inkscape:pageopacity="0.0"
     inkscape:pageshadow="2"
     inkscape:zoom="2.8"
     inkscape:cx="-25.425662"
     inkscape:cy="101.36997"
     inkscape:document-units="px"
     inkscape:current-layer="layer1"
     showgrid="false"
     units="px"
     inkscape:window-width="1920"
     inkscape:window-height="1017"
     inkscape:window-x="-8"
     inkscape:window-y="-8"
     inkscape:window-maximized="1"
     inkscape:snap-global="false" />
  <metadata
     id="metadata5">
    <rdf:RDF>
      <cc:Work
         rdf:about="">
        <dc:format>image/svg+xml</dc:format>
        <dc:type
           rdf:resource="http://purl.org/dc/dcmitype/StillImage" />
        <dc:title />
      </cc:Work>
    </rdf:RDF>
  </metadata>
  <g
     inkscape:label="Layer 1"
     inkscape:groupmode="layer"
     id="layer1"
     transform="translate(0,-270.54165)">
    <path
       transform="scale(-1,1)"
       d="m -3.185029,285.18915 a 9.7707348,9.7707348 0 0 1 -9.770735,9.77073 l 0,-9.77073 z"
       sodipodi:end="1.5707963"
       sodipodi:start="0"
       sodipodi:ry="9.7707348"
       sodipodi:rx="9.7707348"
       sodipodi:cy="285.18915"
       sodipodi:cx="-12.955764"
       sodipodi:type="arc"
       style="opacity:0.186;fill:#ffcd14;fill-opacity:1;stroke:none;stroke-width:1.50000012;stroke-linecap:round;stroke-linejoin:round;stroke-miterlimit:4;stroke-dasharray:none;stroke-dashoffset:18.89763832;stroke-opacity:1"
       id="path833" />
    <path
       id="circle836"
       style="opacity:1;fill:#ffcd14;fill-opacity:0.34183675;stroke:none;stroke-width:1.5;stroke-linecap:round;stroke-linejoin:round;stroke-miterlimit:4;stroke-dasharray:none;stroke-dashoffset:18.89763832;stroke-opacity:1"
       sodipodi:type="arc"
       sodipodi:cx="13.51385"
       sodipodi:cy="-284.64227"
       sodipodi:rx="8.619442"
       sodipodi:ry="8.619442"
       sodipodi:start="0"
       sodipodi:end="1.5707963"
       d="m 22.133292,-284.64227 a 8.619442,8.619442 0 0 1 -8.619442,8.61944 l 0,-8.61944 z"
       transform="scale(1,-1)" />
    <circle
       style="opacity:1;fill:none;fill-opacity:0.15816327;stroke:#ffcd14;stroke-width:1.5;stroke-linecap:round;stroke-linejoin:round;stroke-miterlimit:4;stroke-dasharray:none;stroke-dashoffset:18.89763832;stroke-opacity:1"
       id="path834"
       cx="13.831198"
       cy="283.97058"
       r="8.619442" />
    <circle
       style="opacity:1;fill:#000000;fill-opacity:1;stroke:none;stroke-width:1.5;stroke-linecap:round;stroke-linejoin:round;stroke-miterlimit:4;stroke-dasharray:none;stroke-dashoffset:18.89763832;stroke-opacity:1"
       id="path838"
       cx="13.51385"
       cy="284.64227"
       r="1.1293774" />
    <g
       id="g846"
       style="stroke:#ffcd14;stroke-opacity:1">
      <path
         inkscape:connector-curvature="0"
         id="path840"
         d="m 13.51385,275.5217 v 2.13465"
         style="fill:none;stroke:#ffcd14;stroke-width:1.5;stroke-linecap:round;stroke-linejoin:miter;stroke-miterlimit:4;stroke-dasharray:none;stroke-opacity:1" />
      <path
         style="fill:none;stroke:#ffcd14;stroke-width:1.5;stroke-linecap:round;stroke-linejoin:miter;stroke-miterlimit:4;stroke-dasharray:none;stroke-opacity:1"
         d="m 13.51385,290.18812 v 2.13465"
         id="path842"
         inkscape:connector-curvature="0" />
    </g>
    <g
       id="g852"
       transform="rotate(90,13.271637,284.38161)"
       style="stroke:#ffcd14;stroke-opacity:1">
      <path
         style="fill:none;stroke:#ffcd14;stroke-width:1.5;stroke-linecap:round;stroke-linejoin:miter;stroke-miterlimit:4;stroke-dasharray:none;stroke-opacity:1"
         d="m 13.51385,275.5217 v 2.13465"
         id="path848"
         inkscape:connector-curvature="0" />
      <path
         inkscape:connector-curvature="0"
         id="path850"
         d="m 13.51385,290.18812 v 2.13465"
         style="fill:none;stroke:#ffcd14;stroke-width:1.5;stroke-linecap:round;stroke-linejoin:miter;stroke-miterlimit:4;stroke-dasharray:none;stroke-opacity:1" />
    </g>
    <path
       style="fill:none;stroke:#000000;stroke-width:1.00000001;stroke-linecap:round;stroke-linejoin:miter;stroke-miterlimit:4;stroke-dasharray:none;stroke-opacity:1"
       d="m 13.51385,284.64227 4.145926,3.4136"
       id="path854"
       inkscape:connector-curvature="0"
       sodipodi:nodetypes="cc" />
    <path
       inkscape:connector-curvature="0"
       id="path856"
       d="m 13.496587,284.65665 2.042484,-2.1469"
       style="fill:none;stroke:#000000;stroke-width:1;stroke-linecap:round;stroke-linejoin:miter;stroke-miterlimit:4;stroke-dasharray:none;stroke-opacity:1"
       sodipodi:nodetypes="cc" />
  </g>
</svg>
